%YAML 1.1
%TAG !u! tag:unity3d.com,2011:
--- !u!74 &7400000
AnimationClip:
  m_ObjectHideFlags: 0
  m_CorrespondingSourceObject: {fileID: 0}
  m_PrefabInstance: {fileID: 0}
  m_PrefabAsset: {fileID: 0}
  m_Name: load
  serializedVersion: 6
  m_Legacy: 0
  m_Compressed: 0
  m_UseHighQualityCurve: 1
  m_RotationCurves: []
  m_CompressedRotationCurves: []
  m_EulerCurves: []
  m_PositionCurves: []
  m_ScaleCurves: []
  m_FloatCurves: []
  m_PPtrCurves:
  - curve:
    - time: 0
      value: {fileID: 21300000, guid: 971d8f552de758446b82d567724a7095, type: 3}
    - time: 0.083333336
      value: {fileID: 21300000, guid: e22218329d8c66840aae6d485d51ab62, type: 3}
    - time: 0.16666667
      value: {fileID: 21300000, guid: 403c6d75efb8f6f4b8606fd0f2f4e49d, type: 3}
    - time: 0.25
      value: {fileID: 21300000, guid: fe8f85ca41fb0c947a4da02f4ab8fbd7, type: 3}
    - time: 0.33333334
      value: {fileID: 21300000, guid: ac6eabc2a063faa40841e16f2e3c40b6, type: 3}
    - time: 0.41666666
      value: {fileID: 21300000, guid: 684f064537bb0a540beacc5059cea451, type: 3}
    - time: 0.5
      value: {fileID: 21300000, guid: 726fd18648776de4e99a9ee0918cb8ab, type: 3}
    - time: 0.5833333
      value: {fileID: 21300000, guid: 0ed26b94bf09284468752a3af7bc820f, type: 3}
    - time: 0.6666667
      value: {fileID: 21300000, guid: 500ce4849509a8742aec4b5c9e53fa20, type: 3}
    - time: 0.75
      value: {fileID: 21300000, guid: bca41aafe49f4624eb6784073dcd2cbc, type: 3}
    - time: 0.8333333
      value: {fileID: 21300000, guid: 70d3c189659b21645b3995a03ad53f1b, type: 3}
    - time: 0.9166667
      value: {fileID: 21300000, guid: e8f5b3c774f4a2249930d3932caafa3d, type: 3}
    - time: 1
      value: {fileID: 21300000, guid: 143686aa4c8de8542985d8c6b5190968, type: 3}
    - time: 1.0833334
      value: {fileID: 21300000, guid: 2e7e33656444e9240a2b66bb89b6a60b, type: 3}
    - time: 1.1666666
      value: {fileID: 21300000, guid: f89c90fc2687ae443ad56edc6b6eb91a, type: 3}
    - time: 1.25
      value: {fileID: 21300000, guid: 9dddf1d7ac9d0014db80cf179216be90, type: 3}
    - time: 1.3333334
      value: {fileID: 21300000, guid: 28cac96f34b270543972f13205ce0e1f, type: 3}
    - time: 1.4166666
      value: {fileID: 21300000, guid: 4319335aeaa056c459bc661755dca245, type: 3}
    - time: 1.5
      value: {fileID: 21300000, guid: 3452965c247f075468739ec3e032e323, type: 3}
    - time: 1.5833334
      value: {fileID: 21300000, guid: eb12db97eafba8d4a84e571b2cac6f7e, type: 3}
    - time: 1.6666666
      value: {fileID: 21300000, guid: c9a331f457621ac44ab7c78cc9c32c7c, type: 3}
    - time: 1.75
      value: {fileID: 21300000, guid: 951aad1165e6fcb4f8a2d44e46beaa7a, type: 3}
    - time: 1.8333334
      value: {fileID: 21300000, guid: b9e3c1900af196549bf46c7c9b4e2633, type: 3}
    - time: 1.9166666
      value: {fileID: 21300000, guid: ce2c63a2a3ceafd4bb25cacd149f3df2, type: 3}
    - time: 2
      value: {fileID: 21300000, guid: 56224e6a75135ce4e9b075abaa1bc4bf, type: 3}
    - time: 2.0833333
      value: {fileID: 21300000, guid: fdab186f13de04b42b24b5dce30f4a7e, type: 3}
    - time: 2.1666667
      value: {fileID: 21300000, guid: 95549ef20cc14eb40bcd0d3c3fdd511c, type: 3}
    - time: 2.25
      value: {fileID: 21300000, guid: 512c711a5ebdf4840af2e0b0b82fde23, type: 3}
    - time: 2.3333333
      value: {fileID: 21300000, guid: b571e99a60a12eb448653764910a6405, type: 3}
    - time: 2.4166667
      value: {fileID: 21300000, guid: 7a596cf653b5f08428860d59f268f4af, type: 3}
    - time: 2.5
      value: {fileID: 21300000, guid: b394890bf588581418f62428d5682a0a, type: 3}
    - time: 2.5833333
      value: {fileID: 21300000, guid: 9854e59bea0462540b08d2934c5f4707, type: 3}
    - time: 2.6666667
      value: {fileID: 21300000, guid: a5a1bf5e6ea44b341a59b39bb870d9bd, type: 3}
    - time: 2.75
      value: {fileID: 21300000, guid: 8fd71b7f144544748b3e5765407e7cc7, type: 3}
    - time: 2.8333333
      value: {fileID: 21300000, guid: e65822fff96680e488e7b7b46578c3ea, type: 3}
    - time: 2.9166667
      value: {fileID: 21300000, guid: d67f9d1e32c8e1041a97347bf71719c0, type: 3}
    - time: 3
      value: {fileID: 21300000, guid: 70f6da714618c534bb16a7fa38fb379d, type: 3}
    - time: 3.0833333
      value: {fileID: 21300000, guid: 608ec819f688c7443a62d381841254d9, type: 3}
    - time: 3.1666667
      value: {fileID: 21300000, guid: e10b90a889d110a4eb2e9d9d739b0c5b, type: 3}
    - time: 3.25
      value: {fileID: 21300000, guid: c41551db981f6864786e6a85ee2d9b37, type: 3}
    - time: 3.3333333
      value: {fileID: 21300000, guid: 794a5767186c68542961125e2fa9e7d0, type: 3}
    - time: 3.4166667
      value: {fileID: 21300000, guid: 59b43c6aa0e8aaa4a851e44b874afb94, type: 3}
    - time: 3.5
      value: {fileID: 21300000, guid: 959eb52b509f9b1458994c06d280b542, type: 3}
    - time: 3.5833333
      value: {fileID: 21300000, guid: 569e3c70ea906714e9fcd6de4d51e025, type: 3}
    - time: 3.6666667
      value: {fileID: 21300000, guid: 6510e64930719cf41bdc017908d8b384, type: 3}
    - time: 3.75
      value: {fileID: 21300000, guid: 7847907ca9b0ffd4cafb97fef3218c06, type: 3}
    - time: 3.8333333
      value: {fileID: 21300000, guid: c18faaa7926f3c24ca23646306348af1, type: 3}
    - time: 3.9166667
      value: {fileID: 21300000, guid: 9784e136ed5bbaa4196e9f988c8950be, type: 3}
    - time: 4
      value: {fileID: 21300000, guid: ec02c44ce54f92a4b9c0b63b2e6e0c7f, type: 3}
    - time: 4.0833335
      value: {fileID: 21300000, guid: 4250d7a97da4adb44b71e0d9cc86377e, type: 3}
    - time: 4.1666665
      value: {fileID: 21300000, guid: a753e740969f50a44a193219c2ac5d7e, type: 3}
    - time: 4.25
      value: {fileID: 21300000, guid: 80c39cbc1f032a845bbdfa2e46929e65, type: 3}
    - time: 4.3333335
      value: {fileID: 21300000, guid: e365ce3e1999ee64e924e2b6fa7d950f, type: 3}
    - time: 4.4166665
      value: {fileID: 21300000, guid: 22f2f046d159c2a4f99c1ef96fe335ed, type: 3}
    - time: 4.5
      value: {fileID: 21300000, guid: 5806fb316c75cfd4e81706b412f559c9, type: 3}
    - time: 4.5833335
      value: {fileID: 21300000, guid: 8e93dc9e794fe4c4cbda67174145b0a0, type: 3}
    - time: 4.6666665
      value: {fileID: 21300000, guid: 236b248eb69b5964e8a9d407d84b0a23, type: 3}
    - time: 4.75
      value: {fileID: 21300000, guid: 252568e5335577b4da8b21c239a3fe99, type: 3}
    - time: 4.8333335
      value: {fileID: 21300000, guid: 0adce81158e1d9c4f865e42a8f917059, type: 3}
    - time: 4.9166665
      value: {fileID: 21300000, guid: 5d3e53c0df337c44cb6aa578a4a012b4, type: 3}
    - time: 5
      value: {fileID: 21300000, guid: dd50efaa05f42a449a12c44308630b12, type: 3}
    - time: 5.0833335
      value: {fileID: 21300000, guid: 51b2dafcd9926c148ba878e124dc6b48, type: 3}
    - time: 5.1666665
      value: {fileID: 21300000, guid: 2d3c847a202630548919a744555ba131, type: 3}
    - time: 5.25
      value: {fileID: 21300000, guid: 3b5368e2a8040bf40a660055c5079249, type: 3}
    - time: 5.3333335
      value: {fileID: 21300000, guid: 1408a74ff217eb94d9efa54bab22ad70, type: 3}
    - time: 5.4166665
      value: {fileID: 21300000, guid: 64e489212743af046a76bdb578a61865, type: 3}
    - time: 5.5
      value: {fileID: 21300000, guid: 3f6531aaa3c6c0447991eb6782459d84, type: 3}
    - time: 5.5833335
      value: {fileID: 21300000, guid: 488ff71d9df72354e9a7e3cdc33531b1, type: 3}
    - time: 5.6666665
      value: {fileID: 21300000, guid: db661cbf9a540b8448e925fb5543ad37, type: 3}
    - time: 5.75
      value: {fileID: 21300000, guid: 82023d18b7de1304c9cf2ee41445ebd2, type: 3}
    - time: 5.8333335
      value: {fileID: 21300000, guid: cc337b6e5b11807409060a385be03ae3, type: 3}
    - time: 5.9166665
      value: {fileID: 21300000, guid: 15e310f8289f6af4e998624cdb2764a7, type: 3}
    - time: 6
      value: {fileID: 21300000, guid: 3734f57b031be194da033f75e1b20a51, type: 3}
    - time: 6.0833335
      value: {fileID: 21300000, guid: 6196e7fe0ba178a45908d9507a9f6961, type: 3}
    - time: 6.1666665
      value: {fileID: 21300000, guid: ab8480a1c2d69514c82128a3aef3ddfe, type: 3}
    - time: 6.25
      value: {fileID: 21300000, guid: 39b6098c48920ac4ca0e256cdd00ae43, type: 3}
    - time: 6.3333335
      value: {fileID: 21300000, guid: 3aa5f7c1d47e00c43963c7be5a8575a4, type: 3}
    - time: 6.4166665
      value: {fileID: 21300000, guid: 7a13639c712585b4eb9915aec4657e7b, type: 3}
    - time: 6.5
      value: {fileID: 21300000, guid: f2a57b4f01e3f3741b08926816a23cc8, type: 3}
    - time: 6.5833335
      value: {fileID: 21300000, guid: 108b4e37adaac644381d5a2e049ddaf9, type: 3}
    - time: 6.6666665
      value: {fileID: 21300000, guid: 7224480b0801f064ea3c62214ea21832, type: 3}
    - time: 6.75
      value: {fileID: 21300000, guid: cd4ccee6708bf7644a43d99004918935, type: 3}
    - time: 6.8333335
      value: {fileID: 21300000, guid: 88bacc7350f16a24d8ef78ed611003cf, type: 3}
    - time: 6.9166665
      value: {fileID: 21300000, guid: 55196699abb3914488ead0ec858cf98d, type: 3}
    - time: 7
      value: {fileID: 21300000, guid: 4b871124dded9ec47b78d8321ccef39b, type: 3}
    - time: 7.0833335
      value: {fileID: 21300000, guid: 81fe6815b58996046ba714386551a88d, type: 3}
    - time: 7.1666665
      value: {fileID: 21300000, guid: 9fff0c5cd4104d243b28a9fa2aff025a, type: 3}
    - time: 7.25
      value: {fileID: 21300000, guid: bce792b68be32834caf07ed623f5bc18, type: 3}
    - time: 7.3333335
      value: {fileID: 21300000, guid: e45a00e13d4dab0449d5c3e7e2fa8289, type: 3}
    - time: 7.4166665
      value: {fileID: 21300000, guid: 87f0b4737f3298348832232da515b75d, type: 3}
    - time: 7.5
      value: {fileID: 21300000, guid: 398c8813c87de3141ab8f190969b5d55, type: 3}
    - time: 7.5833335
      value: {fileID: 21300000, guid: 4c899fb68ab6c7947a2fbec20b93824b, type: 3}
    - time: 7.6666665
      value: {fileID: 21300000, guid: a5250d2fc2c299f4988755936e692a6c, type: 3}
    - time: 7.75
      value: {fileID: 21300000, guid: 826020b3c12127542ad4345803524497, type: 3}
    - time: 7.8333335
      value: {fileID: 21300000, guid: 11d0262c49cf4d74eb730aa201e17fe9, type: 3}
    - time: 7.9166665
      value: {fileID: 21300000, guid: 96d71c82196f080418b4da850f1481e6, type: 3}
    - time: 8
      value: {fileID: 21300000, guid: 060675aabaa877540b7bcb1c2fbbb556, type: 3}
    - time: 8.083333
      value: {fileID: 21300000, guid: 166a09a6cb9ea43498df3aba140eaafc, type: 3}
    - time: 8.166667
      value: {fileID: 21300000, guid: 7d48f2ac32ea3ec4cbbebd3e84b05f32, type: 3}
    - time: 8.25
      value: {fileID: 21300000, guid: fd9170b570d64f84094dd331b73b7c34, type: 3}
    - time: 8.333333
      value: {fileID: 21300000, guid: 07ee0ac942ab3c74cba2b24d211b58f2, type: 3}
    - time: 8.416667
      value: {fileID: 21300000, guid: 551b33f5753699540a65d0ebf7748118, type: 3}
    - time: 8.5
      value: {fileID: 21300000, guid: 7052c2f4d4d8dd243949977665f33688, type: 3}
    - time: 8.583333
      value: {fileID: 21300000, guid: cf32a001f80ba024db067d3927fec933, type: 3}
    - time: 8.666667
      value: {fileID: 21300000, guid: c828fded3a9d286448d749078bd9e3b7, type: 3}
    - time: 8.75
      value: {fileID: 21300000, guid: e54055a72bc45224a9d16f15c94c19f8, type: 3}
    - time: 8.833333
      value: {fileID: 21300000, guid: e3c8ba58203b0394499376e78669da92, type: 3}
    - time: 8.916667
      value: {fileID: 21300000, guid: 816da48aed6f7104eb0fcc73d38fd682, type: 3}
    - time: 9
      value: {fileID: 21300000, guid: ccca9ef423228a144b730eb32b5092d4, type: 3}
    - time: 9.083333
      value: {fileID: 21300000, guid: 0127e5d58d378354fa75d72b32a9443f, type: 3}
    - time: 9.166667
      value: {fileID: 21300000, guid: dbbf55db8f25a95449cde22e6a6f9f3e, type: 3}
    - time: 9.25
      value: {fileID: 21300000, guid: 3373fc58d23ab984096bede9ccedc62f, type: 3}
    - time: 9.333333
      value: {fileID: 21300000, guid: 26f7295239a7db54c9a1d64d9641cfad, type: 3}
    - time: 9.416667
      value: {fileID: 21300000, guid: a80b6b4fb9b3c3646bf9270cb128afc4, type: 3}
    - time: 9.5
      value: {fileID: 21300000, guid: 63f4e00fafcc25541b6be3cdee73a78b, type: 3}
    - time: 9.583333
      value: {fileID: 21300000, guid: a5234d78f8851c74ebe147a6dc27fca1, type: 3}
    - time: 9.666667
      value: {fileID: 21300000, guid: 8bcf896f7fcd7744db0039cb00b462d1, type: 3}
    - time: 9.75
      value: {fileID: 21300000, guid: d659fff118ec75c4c989a20ba9629862, type: 3}
    - time: 9.833333
      value: {fileID: 21300000, guid: 783172f1f6831ef4dbae773dfd383081, type: 3}
    - time: 9.916667
      value: {fileID: 21300000, guid: 8748e58cd66b3494cbcb8a1fc9fa85fd, type: 3}
    - time: 10
      value: {fileID: 21300000, guid: 8693368553182a646b99ab4fb444763b, type: 3}
    - time: 10.083333
      value: {fileID: 21300000, guid: ac2588661ef712440ad2d779491d9428, type: 3}
    - time: 10.166667
      value: {fileID: 21300000, guid: b82cf56f3f41900438f5d604aecfbc52, type: 3}
    - time: 10.25
      value: {fileID: 21300000, guid: c610abe74f6b8084ca1049655cc61a32, type: 3}
    - time: 10.333333
      value: {fileID: 21300000, guid: 4b19aa1a2f9f46d418f306804e136552, type: 3}
    - time: 10.416667
      value: {fileID: 21300000, guid: 8f1e408c747985f45b950fcb8ef24acf, type: 3}
    - time: 10.5
      value: {fileID: 21300000, guid: bdbf89c31e5daee4cbcd558fb0b73b2c, type: 3}
    - time: 10.583333
      value: {fileID: 21300000, guid: fd9779b3bccdddc438e85e9b4cd05c42, type: 3}
    - time: 10.666667
      value: {fileID: 21300000, guid: c42ea9e6e5daf234994f146961863827, type: 3}
    - time: 10.75
      value: {fileID: 21300000, guid: 7b8cbc827df3b9d4589520f9cf804f79, type: 3}
    - time: 10.833333
      value: {fileID: 21300000, guid: 7547fbd2ec2028646aa1bf4da69b5af1, type: 3}
    - time: 10.916667
      value: {fileID: 21300000, guid: 3c670dcfd372de444ae227d87dabb22f, type: 3}
    - time: 11
      value: {fileID: 21300000, guid: 4459521c9675a414885043d1d0ad5607, type: 3}
    - time: 11.083333
      value: {fileID: 21300000, guid: 4d43ec97a4fd3df47b365c6b8451dee9, type: 3}
    - time: 11.166667
      value: {fileID: 21300000, guid: f63cb008938a7d444bfea99f0bee405b, type: 3}
    - time: 11.25
      value: {fileID: 21300000, guid: d2085489909269e49ba10504debb0f4f, type: 3}
    - time: 11.333333
      value: {fileID: 21300000, guid: b98460779903bf34cb3cdac3ca23a667, type: 3}
    - time: 11.416667
      value: {fileID: 21300000, guid: e0f7503847c4de14abdee57fdd4ab7cc, type: 3}
    - time: 11.5
      value: {fileID: 21300000, guid: fb9da437485433340afc45e6cc517894, type: 3}
    - time: 11.583333
      value: {fileID: 21300000, guid: 0f3711cb1f5ed16479308b05d9a9c931, type: 3}
    - time: 11.666667
      value: {fileID: 21300000, guid: 20e9733a61203ca4fb24cc62c857e501, type: 3}
    - time: 11.75
      value: {fileID: 21300000, guid: c21f31f2f0280354d8bdc43708b88c33, type: 3}
    - time: 11.833333
      value: {fileID: 21300000, guid: 332b67bc1ae53d943aa36d46e93db0d0, type: 3}
    - time: 11.916667
      value: {fileID: 21300000, guid: 03ca2d17f0338794bbddcf0f88f6463c, type: 3}
    - time: 12
      value: {fileID: 21300000, guid: 31b39d1aa58000e4ca99c897e0485137, type: 3}
    - time: 12.083333
      value: {fileID: 21300000, guid: a177db4f4b53a664698d6b67ba2b227a, type: 3}
    - time: 12.166667
      value: {fileID: 21300000, guid: 3c3b4c0e936b07f46bb0fdefe00bd1de, type: 3}
    - time: 12.25
      value: {fileID: 21300000, guid: 9a021bdd5ceef7e47bb7d5e0b5c7fce1, type: 3}
    - time: 12.333333
      value: {fileID: 21300000, guid: f3a5718c0a15c4249836db119990f797, type: 3}
    - time: 12.416667
      value: {fileID: 21300000, guid: 0b72297e32fe2f140b6ee6e8766d9380, type: 3}
    - time: 12.5
      value: {fileID: 21300000, guid: 38ff20c7c9e21ca44b46d9e6a740bfdb, type: 3}
    - time: 12.583333
      value: {fileID: 21300000, guid: 1409d80096f376c4c9a5b34353d5ac96, type: 3}
    - time: 12.666667
      value: {fileID: 21300000, guid: 0c9d02092de03174eb64819ad8d2f9e5, type: 3}
    - time: 12.75
      value: {fileID: 21300000, guid: 04586cc88a23b3b4d8e444b6c70ab0b8, type: 3}
    - time: 12.833333
      value: {fileID: 21300000, guid: 2933eaa00cea6e7449745c761e2831f9, type: 3}
    - time: 12.916667
      value: {fileID: 21300000, guid: eb7239a90e600fa4c9e60dba88171682, type: 3}
    - time: 13
      value: {fileID: 21300000, guid: 99ec13c0a7bb6f647b29b48065c2a31b, type: 3}
    - time: 13.083333
      value: {fileID: 21300000, guid: bad0eb16435ccb24a8aa2b8c2e9cfc5e, type: 3}
    - time: 13.166667
      value: {fileID: 21300000, guid: 2b92784db39f4794bac9a54e2b3f74b1, type: 3}
    - time: 13.25
      value: {fileID: 21300000, guid: 5422b46e216d6e646b60e7152f8787e2, type: 3}
    - time: 13.333333
      value: {fileID: 21300000, guid: 18701bb456c0bbd41a517b30c1ab12a9, type: 3}
    - time: 13.416667
      value: {fileID: 21300000, guid: 27998470a1524a64fab4ce4d1d4e1abf, type: 3}
    - time: 13.5
      value: {fileID: 21300000, guid: 66bd83c35a2de5342adc9f8b0bee9bee, type: 3}
    - time: 13.583333
      value: {fileID: 21300000, guid: 80754e28c42792a40bfa4300dc9559c6, type: 3}
    - time: 13.666667
      value: {fileID: 21300000, guid: f071dd4f814ef854e99f76380148c286, type: 3}
    - time: 13.75
      value: {fileID: 21300000, guid: 55f94f9262899f641829478d70b8c868, type: 3}
    - time: 13.833333
      value: {fileID: 21300000, guid: e0b0717f79736294eaa2bcc6a8b6c197, type: 3}
    - time: 13.916667
      value: {fileID: 21300000, guid: 9f46ae42ae7d3b940875eb864ab11f9d, type: 3}
    - time: 14
      value: {fileID: 21300000, guid: e14c705c939bba84b9eba946c9966eaf, type: 3}
    - time: 14.083333
      value: {fileID: 21300000, guid: fe5e4033b9b4637499599bf82411a8f5, type: 3}
    - time: 14.166667
      value: {fileID: 21300000, guid: b33c5201e1975c4458d2551a79a5627d, type: 3}
    - time: 14.25
      value: {fileID: 21300000, guid: 29eb76752daae1741adb6d7cd358a0b7, type: 3}
    - time: 14.333333
      value: {fileID: 21300000, guid: f5763411957639e4994642187e6fe174, type: 3}
    - time: 14.416667
      value: {fileID: 21300000, guid: 7e3d320402994744d93cb4985c8c704a, type: 3}
    - time: 14.5
      value: {fileID: 21300000, guid: cc762252e76688840b368be3e67ba650, type: 3}
    - time: 14.583333
      value: {fileID: 21300000, guid: a176cf75e21ae354ebaae456dc16d1dd, type: 3}
    - time: 14.666667
      value: {fileID: 21300000, guid: 90d783f4e2c947d4788993ef81d5427d, type: 3}
    - time: 14.75
      value: {fileID: 21300000, guid: 525dc1091e4c3ab48a8c9129dfd3c527, type: 3}
    - time: 14.833333
      value: {fileID: 21300000, guid: d3b8e91086bc84f4f8404a295ac4a730, type: 3}
    - time: 14.916667
      value: {fileID: 21300000, guid: 32d018135aafc0941b12413e2521aa8d, type: 3}
    - time: 15
      value: {fileID: 21300000, guid: 7abacf46507a2db49ac191f99850dabf, type: 3}
    - time: 15.083333
      value: {fileID: 21300000, guid: ff745feed2820224d9935a058c80e089, type: 3}
    - time: 15.166667
      value: {fileID: 21300000, guid: 9a8732cbe0f753e4fb09ad3c693f22d2, type: 3}
    - time: 15.25
      value: {fileID: 21300000, guid: c87077ad5b704c2499e627e5f138239d, type: 3}
    - time: 15.333333
      value: {fileID: 21300000, guid: 597d696ba0e5e914684100a11bdc72fd, type: 3}
    - time: 15.416667
      value: {fileID: 21300000, guid: bb18f4715fb75ef46bb9e876d06ff754, type: 3}
    - time: 15.5
      value: {fileID: 21300000, guid: 257d41f6b617694468cc46539a23aee0, type: 3}
    - time: 15.583333
      value: {fileID: 21300000, guid: a391119957d8c50418cbbd79c70b10cc, type: 3}
    - time: 15.666667
      value: {fileID: 21300000, guid: 86e62935fba95d24db0497d43346811a, type: 3}
    - time: 15.75
      value: {fileID: 21300000, guid: bb9a854a2ec08c644a3afbebedce7ce1, type: 3}
    - time: 15.833333
      value: {fileID: 21300000, guid: dc4202fb2cd3afd4d804d10a0e01b04d, type: 3}
    - time: 15.916667
      value: {fileID: 21300000, guid: d5855682b5a9c36459e9d69ceb4d5838, type: 3}
    - time: 16
      value: {fileID: 21300000, guid: aee04ec1b9ed8f84197c7b2d52dfac60, type: 3}
    - time: 16.083334
      value: {fileID: 21300000, guid: f4b10420e6058104e893d598cb4f450e, type: 3}
    - time: 16.166666
      value: {fileID: 21300000, guid: d3e4c89093ece9146bdeeef10b37fbee, type: 3}
    - time: 16.25
      value: {fileID: 21300000, guid: b2b0d2c7749541345906bb52292bbbec, type: 3}
    - time: 16.333334
      value: {fileID: 21300000, guid: e23cabf559d7fe6488b17dd4963c1757, type: 3}
    - time: 16.416666
      value: {fileID: 21300000, guid: d0e3c22c3ca593a4fa163abc089798dc, type: 3}
    - time: 16.5
      value: {fileID: 21300000, guid: 49eb135ce8076cc4eb1acb155be77d04, type: 3}
    - time: 16.583334
      value: {fileID: 21300000, guid: cdf8862d73e98844e8a0fd378b3677a0, type: 3}
    - time: 16.666666
      value: {fileID: 21300000, guid: 0a6fc782e0860324482984019a634b24, type: 3}
    - time: 16.75
      value: {fileID: 21300000, guid: 2d4e6baf4d403524b91e857c302954cf, type: 3}
    - time: 16.833334
      value: {fileID: 21300000, guid: f7db8eac9ebe5b94fb76423e4d8969c4, type: 3}
    - time: 16.916666
      value: {fileID: 21300000, guid: 2250c5b7927a6d24f95383f069979689, type: 3}
    - time: 17
      value: {fileID: 21300000, guid: a03baf51b2089a146a108e85ae36ce08, type: 3}
    - time: 17.083334
      value: {fileID: 21300000, guid: 0861d80d1057d4a49bd6c52f2667f9e2, type: 3}
    - time: 17.166666
      value: {fileID: 21300000, guid: 3466b5b6e6d16854ab4cae10f4f1187c, type: 3}
    - time: 17.25
      value: {fileID: 21300000, guid: 5175e01bdd8504c48b24ae5b644e0772, type: 3}
    - time: 17.333334
      value: {fileID: 21300000, guid: d013b83437be11a46a44c65fa783eef3, type: 3}
    - time: 17.416666
      value: {fileID: 21300000, guid: 0816f45ff26e95e41be255afc59c5a8a, type: 3}
    - time: 17.5
      value: {fileID: 21300000, guid: e9d43da78efcdac44b4671a396c613d1, type: 3}
    - time: 17.583334
      value: {fileID: 21300000, guid: 5092c9a6589893049b531bbdad76c159, type: 3}
    - time: 17.666666
      value: {fileID: 21300000, guid: 57295bde7eee6fb419d24f272311a50f, type: 3}
    - time: 17.75
      value: {fileID: 21300000, guid: ac563202b5dfb71439acb358c7b84c87, type: 3}
    - time: 17.833334
      value: {fileID: 21300000, guid: d093f00a8b54b0644a73fe0f960ef370, type: 3}
    - time: 17.916666
      value: {fileID: 21300000, guid: 8c9194d1a4a825e4cb16cb87279a5464, type: 3}
    - time: 18
      value: {fileID: 21300000, guid: 3e84c220b1c27a84aba254a879b27d7b, type: 3}
    - time: 18.083334
      value: {fileID: 21300000, guid: 222555f0957692b4bb1d7c4c17e499b0, type: 3}
    - time: 18.166666
      value: {fileID: 21300000, guid: b582e2276c17a2a45b41ea93aba6ffd3, type: 3}
    - time: 18.25
      value: {fileID: 21300000, guid: 7c317bc009c0ce647a15a6f5537c5bb6, type: 3}
    - time: 18.333334
      value: {fileID: 21300000, guid: 54c48473cb0a05f4b83b33338e233e30, type: 3}
    - time: 18.416666
      value: {fileID: 21300000, guid: 4a899218ac1240442973dabb45e77e66, type: 3}
    - time: 18.5
      value: {fileID: 21300000, guid: 5525d3482c9bad644bdb889dfd13b149, type: 3}
    - time: 18.583334
      value: {fileID: 21300000, guid: a230b8d36c14ead40b5415dfa30868ec, type: 3}
    - time: 18.666666
      value: {fileID: 21300000, guid: 294d1a15d03dcd340845925c7fa77a52, type: 3}
    - time: 18.75
      value: {fileID: 21300000, guid: 46b31e6ccf3c4b84396296a802fceeab, type: 3}
    - time: 18.833334
      value: {fileID: 21300000, guid: 279f03ec9a81de642929dff3dbdea2a0, type: 3}
    - time: 18.916666
      value: {fileID: 21300000, guid: 1927ab5ea3df4ba4eb7728de5aac7a63, type: 3}
    - time: 19
      value: {fileID: 21300000, guid: bc9d5a48a665b2e419704224183dd405, type: 3}
    - time: 19.083334
      value: {fileID: 21300000, guid: 57bf457c42ac7214689b58f6f4f358c5, type: 3}
    - time: 19.166666
      value: {fileID: 21300000, guid: bb59dd9cd38cae74491bfba706ff17fa, type: 3}
    - time: 19.25
      value: {fileID: 21300000, guid: 28ea7d0270a32034fac6b684179bc08a, type: 3}
    - time: 19.333334
      value: {fileID: 21300000, guid: 3e6c04fa422cb8c4992e722d0ec1d752, type: 3}
    - time: 19.416666
      value: {fileID: 21300000, guid: 2864d4059df9a62409e9f89fb97d3222, type: 3}
    - time: 19.5
      value: {fileID: 21300000, guid: ce58c59fa6bf1dc40980d57cfc7cd532, type: 3}
    - time: 19.583334
      value: {fileID: 21300000, guid: 06a56580937f43f46b05243eee594932, type: 3}
    - time: 19.666666
      value: {fileID: 21300000, guid: 57317efeb394917429edb36c179dd8ae, type: 3}
    - time: 19.75
      value: {fileID: 21300000, guid: aaabec6c4bafedd4d89a919f7aea6677, type: 3}
    - time: 19.833334
      value: {fileID: 21300000, guid: e0af44fecd13a8242a704843e48af1d9, type: 3}
    - time: 19.916666
      value: {fileID: 21300000, guid: 083eba9dc3cd1704290311a198021306, type: 3}
    attribute: m_Sprite
    path: 
    classID: 212
    script: {fileID: 0}
  m_SampleRate: 12
  m_WrapMode: 0
  m_Bounds:
    m_Center: {x: 0, y: 0, z: 0}
    m_Extent: {x: 0, y: 0, z: 0}
  m_ClipBindingConstant:
    genericBindings:
    - serializedVersion: 2
      path: 0
      attribute: 0
      script: {fileID: 0}
      typeID: 212
      customType: 23
      isPPtrCurve: 1
    pptrCurveMapping:
    - {fileID: 21300000, guid: 971d8f552de758446b82d567724a7095, type: 3}
    - {fileID: 21300000, guid: e22218329d8c66840aae6d485d51ab62, type: 3}
    - {fileID: 21300000, guid: 403c6d75efb8f6f4b8606fd0f2f4e49d, type: 3}
    - {fileID: 21300000, guid: fe8f85ca41fb0c947a4da02f4ab8fbd7, type: 3}
    - {fileID: 21300000, guid: ac6eabc2a063faa40841e16f2e3c40b6, type: 3}
    - {fileID: 21300000, guid: 684f064537bb0a540beacc5059cea451, type: 3}
    - {fileID: 21300000, guid: 726fd18648776de4e99a9ee0918cb8ab, type: 3}
    - {fileID: 21300000, guid: 0ed26b94bf09284468752a3af7bc820f, type: 3}
    - {fileID: 21300000, guid: 500ce4849509a8742aec4b5c9e53fa20, type: 3}
    - {fileID: 21300000, guid: bca41aafe49f4624eb6784073dcd2cbc, type: 3}
    - {fileID: 21300000, guid: 70d3c189659b21645b3995a03ad53f1b, type: 3}
    - {fileID: 21300000, guid: e8f5b3c774f4a2249930d3932caafa3d, type: 3}
    - {fileID: 21300000, guid: 143686aa4c8de8542985d8c6b5190968, type: 3}
    - {fileID: 21300000, guid: 2e7e33656444e9240a2b66bb89b6a60b, type: 3}
    - {fileID: 21300000, guid: f89c90fc2687ae443ad56edc6b6eb91a, type: 3}
    - {fileID: 21300000, guid: 9dddf1d7ac9d0014db80cf179216be90, type: 3}
    - {fileID: 21300000, guid: 28cac96f34b270543972f13205ce0e1f, type: 3}
    - {fileID: 21300000, guid: 4319335aeaa056c459bc661755dca245, type: 3}
    - {fileID: 21300000, guid: 3452965c247f075468739ec3e032e323, type: 3}
    - {fileID: 21300000, guid: eb12db97eafba8d4a84e571b2cac6f7e, type: 3}
    - {fileID: 21300000, guid: c9a331f457621ac44ab7c78cc9c32c7c, type: 3}
    - {fileID: 21300000, guid: 951aad1165e6fcb4f8a2d44e46beaa7a, type: 3}
    - {fileID: 21300000, guid: b9e3c1900af196549bf46c7c9b4e2633, type: 3}
    - {fileID: 21300000, guid: ce2c63a2a3ceafd4bb25cacd149f3df2, type: 3}
    - {fileID: 21300000, guid: 56224e6a75135ce4e9b075abaa1bc4bf, type: 3}
    - {fileID: 21300000, guid: fdab186f13de04b42b24b5dce30f4a7e, type: 3}
    - {fileID: 21300000, guid: 95549ef20cc14eb40bcd0d3c3fdd511c, type: 3}
    - {fileID: 21300000, guid: 512c711a5ebdf4840af2e0b0b82fde23, type: 3}
    - {fileID: 21300000, guid: b571e99a60a12eb448653764910a6405, type: 3}
    - {fileID: 21300000, guid: 7a596cf653b5f08428860d59f268f4af, type: 3}
    - {fileID: 21300000, guid: b394890bf588581418f62428d5682a0a, type: 3}
    - {fileID: 21300000, guid: 9854e59bea0462540b08d2934c5f4707, type: 3}
    - {fileID: 21300000, guid: a5a1bf5e6ea44b341a59b39bb870d9bd, type: 3}
    - {fileID: 21300000, guid: 8fd71b7f144544748b3e5765407e7cc7, type: 3}
    - {fileID: 21300000, guid: e65822fff96680e488e7b7b46578c3ea, type: 3}
    - {fileID: 21300000, guid: d67f9d1e32c8e1041a97347bf71719c0, type: 3}
    - {fileID: 21300000, guid: 70f6da714618c534bb16a7fa38fb379d, type: 3}
    - {fileID: 21300000, guid: 608ec819f688c7443a62d381841254d9, type: 3}
    - {fileID: 21300000, guid: e10b90a889d110a4eb2e9d9d739b0c5b, type: 3}
    - {fileID: 21300000, guid: c41551db981f6864786e6a85ee2d9b37, type: 3}
    - {fileID: 21300000, guid: 794a5767186c68542961125e2fa9e7d0, type: 3}
    - {fileID: 21300000, guid: 59b43c6aa0e8aaa4a851e44b874afb94, type: 3}
    - {fileID: 21300000, guid: 959eb52b509f9b1458994c06d280b542, type: 3}
    - {fileID: 21300000, guid: 569e3c70ea906714e9fcd6de4d51e025, type: 3}
    - {fileID: 21300000, guid: 6510e64930719cf41bdc017908d8b384, type: 3}
    - {fileID: 21300000, guid: 7847907ca9b0ffd4cafb97fef3218c06, type: 3}
    - {fileID: 21300000, guid: c18faaa7926f3c24ca23646306348af1, type: 3}
    - {fileID: 21300000, guid: 9784e136ed5bbaa4196e9f988c8950be, type: 3}
    - {fileID: 21300000, guid: ec02c44ce54f92a4b9c0b63b2e6e0c7f, type: 3}
    - {fileID: 21300000, guid: 4250d7a97da4adb44b71e0d9cc86377e, type: 3}
    - {fileID: 21300000, guid: a753e740969f50a44a193219c2ac5d7e, type: 3}
    - {fileID: 21300000, guid: 80c39cbc1f032a845bbdfa2e46929e65, type: 3}
    - {fileID: 21300000, guid: e365ce3e1999ee64e924e2b6fa7d950f, type: 3}
    - {fileID: 21300000, guid: 22f2f046d159c2a4f99c1ef96fe335ed, type: 3}
    - {fileID: 21300000, guid: 5806fb316c75cfd4e81706b412f559c9, type: 3}
    - {fileID: 21300000, guid: 8e93dc9e794fe4c4cbda67174145b0a0, type: 3}
    - {fileID: 21300000, guid: 236b248eb69b5964e8a9d407d84b0a23, type: 3}
    - {fileID: 21300000, guid: 252568e5335577b4da8b21c239a3fe99, type: 3}
    - {fileID: 21300000, guid: 0adce81158e1d9c4f865e42a8f917059, type: 3}
    - {fileID: 21300000, guid: 5d3e53c0df337c44cb6aa578a4a012b4, type: 3}
    - {fileID: 21300000, guid: dd50efaa05f42a449a12c44308630b12, type: 3}
    - {fileID: 21300000, guid: 51b2dafcd9926c148ba878e124dc6b48, type: 3}
    - {fileID: 21300000, guid: 2d3c847a202630548919a744555ba131, type: 3}
    - {fileID: 21300000, guid: 3b5368e2a8040bf40a660055c5079249, type: 3}
    - {fileID: 21300000, guid: 1408a74ff217eb94d9efa54bab22ad70, type: 3}
    - {fileID: 21300000, guid: 64e489212743af046a76bdb578a61865, type: 3}
    - {fileID: 21300000, guid: 3f6531aaa3c6c0447991eb6782459d84, type: 3}
    - {fileID: 21300000, guid: 488ff71d9df72354e9a7e3cdc33531b1, type: 3}
    - {fileID: 21300000, guid: db661cbf9a540b8448e925fb5543ad37, type: 3}
    - {fileID: 21300000, guid: 82023d18b7de1304c9cf2ee41445ebd2, type: 3}
    - {fileID: 21300000, guid: cc337b6e5b11807409060a385be03ae3, type: 3}
    - {fileID: 21300000, guid: 15e310f8289f6af4e998624cdb2764a7, type: 3}
    - {fileID: 21300000, guid: 3734f57b031be194da033f75e1b20a51, type: 3}
    - {fileID: 21300000, guid: 6196e7fe0ba178a45908d9507a9f6961, type: 3}
    - {fileID: 21300000, guid: ab8480a1c2d69514c82128a3aef3ddfe, type: 3}
    - {fileID: 21300000, guid: 39b6098c48920ac4ca0e256cdd00ae43, type: 3}
    - {fileID: 21300000, guid: 3aa5f7c1d47e00c43963c7be5a8575a4, type: 3}
    - {fileID: 21300000, guid: 7a13639c712585b4eb9915aec4657e7b, type: 3}
    - {fileID: 21300000, guid: f2a57b4f01e3f3741b08926816a23cc8, type: 3}
    - {fileID: 21300000, guid: 108b4e37adaac644381d5a2e049ddaf9, type: 3}
    - {fileID: 21300000, guid: 7224480b0801f064ea3c62214ea21832, type: 3}
    - {fileID: 21300000, guid: cd4ccee6708bf7644a43d99004918935, type: 3}
    - {fileID: 21300000, guid: 88bacc7350f16a24d8ef78ed611003cf, type: 3}
    - {fileID: 21300000, guid: 55196699abb3914488ead0ec858cf98d, type: 3}
    - {fileID: 21300000, guid: 4b871124dded9ec47b78d8321ccef39b, type: 3}
    - {fileID: 21300000, guid: 81fe6815b58996046ba714386551a88d, type: 3}
    - {fileID: 21300000, guid: 9fff0c5cd4104d243b28a9fa2aff025a, type: 3}
    - {fileID: 21300000, guid: bce792b68be32834caf07ed623f5bc18, type: 3}
    - {fileID: 21300000, guid: e45a00e13d4dab0449d5c3e7e2fa8289, type: 3}
    - {fileID: 21300000, guid: 87f0b4737f3298348832232da515b75d, type: 3}
    - {fileID: 21300000, guid: 398c8813c87de3141ab8f190969b5d55, type: 3}
    - {fileID: 21300000, guid: 4c899fb68ab6c7947a2fbec20b93824b, type: 3}
    - {fileID: 21300000, guid: a5250d2fc2c299f4988755936e692a6c, type: 3}
    - {fileID: 21300000, guid: 826020b3c12127542ad4345803524497, type: 3}
    - {fileID: 21300000, guid: 11d0262c49cf4d74eb730aa201e17fe9, type: 3}
    - {fileID: 21300000, guid: 96d71c82196f080418b4da850f1481e6, type: 3}
    - {fileID: 21300000, guid: 060675aabaa877540b7bcb1c2fbbb556, type: 3}
    - {fileID: 21300000, guid: 166a09a6cb9ea43498df3aba140eaafc, type: 3}
    - {fileID: 21300000, guid: 7d48f2ac32ea3ec4cbbebd3e84b05f32, type: 3}
    - {fileID: 21300000, guid: fd9170b570d64f84094dd331b73b7c34, type: 3}
    - {fileID: 21300000, guid: 07ee0ac942ab3c74cba2b24d211b58f2, type: 3}
    - {fileID: 21300000, guid: 551b33f5753699540a65d0ebf7748118, type: 3}
    - {fileID: 21300000, guid: 7052c2f4d4d8dd243949977665f33688, type: 3}
    - {fileID: 21300000, guid: cf32a001f80ba024db067d3927fec933, type: 3}
    - {fileID: 21300000, guid: c828fded3a9d286448d749078bd9e3b7, type: 3}
    - {fileID: 21300000, guid: e54055a72bc45224a9d16f15c94c19f8, type: 3}
    - {fileID: 21300000, guid: e3c8ba58203b0394499376e78669da92, type: 3}
    - {fileID: 21300000, guid: 816da48aed6f7104eb0fcc73d38fd682, type: 3}
    - {fileID: 21300000, guid: ccca9ef423228a144b730eb32b5092d4, type: 3}
    - {fileID: 21300000, guid: 0127e5d58d378354fa75d72b32a9443f, type: 3}
    - {fileID: 21300000, guid: dbbf55db8f25a95449cde22e6a6f9f3e, type: 3}
    - {fileID: 21300000, guid: 3373fc58d23ab984096bede9ccedc62f, type: 3}
    - {fileID: 21300000, guid: 26f7295239a7db54c9a1d64d9641cfad, type: 3}
    - {fileID: 21300000, guid: a80b6b4fb9b3c3646bf9270cb128afc4, type: 3}
    - {fileID: 21300000, guid: 63f4e00fafcc25541b6be3cdee73a78b, type: 3}
    - {fileID: 21300000, guid: a5234d78f8851c74ebe147a6dc27fca1, type: 3}
    - {fileID: 21300000, guid: 8bcf896f7fcd7744db0039cb00b462d1, type: 3}
    - {fileID: 21300000, guid: d659fff118ec75c4c989a20ba9629862, type: 3}
    - {fileID: 21300000, guid: 783172f1f6831ef4dbae773dfd383081, type: 3}
    - {fileID: 21300000, guid: 8748e58cd66b3494cbcb8a1fc9fa85fd, type: 3}
    - {fileID: 21300000, guid: 8693368553182a646b99ab4fb444763b, type: 3}
    - {fileID: 21300000, guid: ac2588661ef712440ad2d779491d9428, type: 3}
    - {fileID: 21300000, guid: b82cf56f3f41900438f5d604aecfbc52, type: 3}
    - {fileID: 21300000, guid: c610abe74f6b8084ca1049655cc61a32, type: 3}
    - {fileID: 21300000, guid: 4b19aa1a2f9f46d418f306804e136552, type: 3}
    - {fileID: 21300000, guid: 8f1e408c747985f45b950fcb8ef24acf, type: 3}
    - {fileID: 21300000, guid: bdbf89c31e5daee4cbcd558fb0b73b2c, type: 3}
    - {fileID: 21300000, guid: fd9779b3bccdddc438e85e9b4cd05c42, type: 3}
    - {fileID: 21300000, guid: c42ea9e6e5daf234994f146961863827, type: 3}
    - {fileID: 21300000, guid: 7b8cbc827df3b9d4589520f9cf804f79, type: 3}
    - {fileID: 21300000, guid: 7547fbd2ec2028646aa1bf4da69b5af1, type: 3}
    - {fileID: 21300000, guid: 3c670dcfd372de444ae227d87dabb22f, type: 3}
    - {fileID: 21300000, guid: 4459521c9675a414885043d1d0ad5607, type: 3}
    - {fileID: 21300000, guid: 4d43ec97a4fd3df47b365c6b8451dee9, type: 3}
    - {fileID: 21300000, guid: f63cb008938a7d444bfea99f0bee405b, type: 3}
    - {fileID: 21300000, guid: d2085489909269e49ba10504debb0f4f, type: 3}
    - {fileID: 21300000, guid: b98460779903bf34cb3cdac3ca23a667, type: 3}
    - {fileID: 21300000, guid: e0f7503847c4de14abdee57fdd4ab7cc, type: 3}
    - {fileID: 21300000, guid: fb9da437485433340afc45e6cc517894, type: 3}
    - {fileID: 21300000, guid: 0f3711cb1f5ed16479308b05d9a9c931, type: 3}
    - {fileID: 21300000, guid: 20e9733a61203ca4fb24cc62c857e501, type: 3}
    - {fileID: 21300000, guid: c21f31f2f0280354d8bdc43708b88c33, type: 3}
    - {fileID: 21300000, guid: 332b67bc1ae53d943aa36d46e93db0d0, type: 3}
    - {fileID: 21300000, guid: 03ca2d17f0338794bbddcf0f88f6463c, type: 3}
    - {fileID: 21300000, guid: 31b39d1aa58000e4ca99c897e0485137, type: 3}
    - {fileID: 21300000, guid: a177db4f4b53a664698d6b67ba2b227a, type: 3}
    - {fileID: 21300000, guid: 3c3b4c0e936b07f46bb0fdefe00bd1de, type: 3}
    - {fileID: 21300000, guid: 9a021bdd5ceef7e47bb7d5e0b5c7fce1, type: 3}
    - {fileID: 21300000, guid: f3a5718c0a15c4249836db119990f797, type: 3}
    - {fileID: 21300000, guid: 0b72297e32fe2f140b6ee6e8766d9380, type: 3}
    - {fileID: 21300000, guid: 38ff20c7c9e21ca44b46d9e6a740bfdb, type: 3}
    - {fileID: 21300000, guid: 1409d80096f376c4c9a5b34353d5ac96, type: 3}
    - {fileID: 21300000, guid: 0c9d02092de03174eb64819ad8d2f9e5, type: 3}
    - {fileID: 21300000, guid: 04586cc88a23b3b4d8e444b6c70ab0b8, type: 3}
    - {fileID: 21300000, guid: 2933eaa00cea6e7449745c761e2831f9, type: 3}
    - {fileID: 21300000, guid: eb7239a90e600fa4c9e60dba88171682, type: 3}
    - {fileID: 21300000, guid: 99ec13c0a7bb6f647b29b48065c2a31b, type: 3}
    - {fileID: 21300000, guid: bad0eb16435ccb24a8aa2b8c2e9cfc5e, type: 3}
    - {fileID: 21300000, guid: 2b92784db39f4794bac9a54e2b3f74b1, type: 3}
    - {fileID: 21300000, guid: 5422b46e216d6e646b60e7152f8787e2, type: 3}
    - {fileID: 21300000, guid: 18701bb456c0bbd41a517b30c1ab12a9, type: 3}
    - {fileID: 21300000, guid: 27998470a1524a64fab4ce4d1d4e1abf, type: 3}
    - {fileID: 21300000, guid: 66bd83c35a2de5342adc9f8b0bee9bee, type: 3}
    - {fileID: 21300000, guid: 80754e28c42792a40bfa4300dc9559c6, type: 3}
    - {fileID: 21300000, guid: f071dd4f814ef854e99f76380148c286, type: 3}
    - {fileID: 21300000, guid: 55f94f9262899f641829478d70b8c868, type: 3}
    - {fileID: 21300000, guid: e0b0717f79736294eaa2bcc6a8b6c197, type: 3}
    - {fileID: 21300000, guid: 9f46ae42ae7d3b940875eb864ab11f9d, type: 3}
    - {fileID: 21300000, guid: e14c705c939bba84b9eba946c9966eaf, type: 3}
    - {fileID: 21300000, guid: fe5e4033b9b4637499599bf82411a8f5, type: 3}
    - {fileID: 21300000, guid: b33c5201e1975c4458d2551a79a5627d, type: 3}
    - {fileID: 21300000, guid: 29eb76752daae1741adb6d7cd358a0b7, type: 3}
    - {fileID: 21300000, guid: f5763411957639e4994642187e6fe174, type: 3}
    - {fileID: 21300000, guid: 7e3d320402994744d93cb4985c8c704a, type: 3}
    - {fileID: 21300000, guid: cc762252e76688840b368be3e67ba650, type: 3}
    - {fileID: 21300000, guid: a176cf75e21ae354ebaae456dc16d1dd, type: 3}
    - {fileID: 21300000, guid: 90d783f4e2c947d4788993ef81d5427d, type: 3}
    - {fileID: 21300000, guid: 525dc1091e4c3ab48a8c9129dfd3c527, type: 3}
    - {fileID: 21300000, guid: d3b8e91086bc84f4f8404a295ac4a730, type: 3}
    - {fileID: 21300000, guid: 32d018135aafc0941b12413e2521aa8d, type: 3}
    - {fileID: 21300000, guid: 7abacf46507a2db49ac191f99850dabf, type: 3}
    - {fileID: 21300000, guid: ff745feed2820224d9935a058c80e089, type: 3}
    - {fileID: 21300000, guid: 9a8732cbe0f753e4fb09ad3c693f22d2, type: 3}
    - {fileID: 21300000, guid: c87077ad5b704c2499e627e5f138239d, type: 3}
    - {fileID: 21300000, guid: 597d696ba0e5e914684100a11bdc72fd, type: 3}
    - {fileID: 21300000, guid: bb18f4715fb75ef46bb9e876d06ff754, type: 3}
    - {fileID: 21300000, guid: 257d41f6b617694468cc46539a23aee0, type: 3}
    - {fileID: 21300000, guid: a391119957d8c50418cbbd79c70b10cc, type: 3}
    - {fileID: 21300000, guid: 86e62935fba95d24db0497d43346811a, type: 3}
    - {fileID: 21300000, guid: bb9a854a2ec08c644a3afbebedce7ce1, type: 3}
    - {fileID: 21300000, guid: dc4202fb2cd3afd4d804d10a0e01b04d, type: 3}
    - {fileID: 21300000, guid: d5855682b5a9c36459e9d69ceb4d5838, type: 3}
    - {fileID: 21300000, guid: aee04ec1b9ed8f84197c7b2d52dfac60, type: 3}
    - {fileID: 21300000, guid: f4b10420e6058104e893d598cb4f450e, type: 3}
    - {fileID: 21300000, guid: d3e4c89093ece9146bdeeef10b37fbee, type: 3}
    - {fileID: 21300000, guid: b2b0d2c7749541345906bb52292bbbec, type: 3}
    - {fileID: 21300000, guid: e23cabf559d7fe6488b17dd4963c1757, type: 3}
    - {fileID: 21300000, guid: d0e3c22c3ca593a4fa163abc089798dc, type: 3}
    - {fileID: 21300000, guid: 49eb135ce8076cc4eb1acb155be77d04, type: 3}
    - {fileID: 21300000, guid: cdf8862d73e98844e8a0fd378b3677a0, type: 3}
    - {fileID: 21300000, guid: 0a6fc782e0860324482984019a634b24, type: 3}
    - {fileID: 21300000, guid: 2d4e6baf4d403524b91e857c302954cf, type: 3}
    - {fileID: 21300000, guid: f7db8eac9ebe5b94fb76423e4d8969c4, type: 3}
    - {fileID: 21300000, guid: 2250c5b7927a6d24f95383f069979689, type: 3}
    - {fileID: 21300000, guid: a03baf51b2089a146a108e85ae36ce08, type: 3}
    - {fileID: 21300000, guid: 0861d80d1057d4a49bd6c52f2667f9e2, type: 3}
    - {fileID: 21300000, guid: 3466b5b6e6d16854ab4cae10f4f1187c, type: 3}
    - {fileID: 21300000, guid: 5175e01bdd8504c48b24ae5b644e0772, type: 3}
    - {fileID: 21300000, guid: d013b83437be11a46a44c65fa783eef3, type: 3}
    - {fileID: 21300000, guid: 0816f45ff26e95e41be255afc59c5a8a, type: 3}
    - {fileID: 21300000, guid: e9d43da78efcdac44b4671a396c613d1, type: 3}
    - {fileID: 21300000, guid: 5092c9a6589893049b531bbdad76c159, type: 3}
    - {fileID: 21300000, guid: 57295bde7eee6fb419d24f272311a50f, type: 3}
    - {fileID: 21300000, guid: ac563202b5dfb71439acb358c7b84c87, type: 3}
    - {fileID: 21300000, guid: d093f00a8b54b0644a73fe0f960ef370, type: 3}
    - {fileID: 21300000, guid: 8c9194d1a4a825e4cb16cb87279a5464, type: 3}
    - {fileID: 21300000, guid: 3e84c220b1c27a84aba254a879b27d7b, type: 3}
    - {fileID: 21300000, guid: 222555f0957692b4bb1d7c4c17e499b0, type: 3}
    - {fileID: 21300000, guid: b582e2276c17a2a45b41ea93aba6ffd3, type: 3}
    - {fileID: 21300000, guid: 7c317bc009c0ce647a15a6f5537c5bb6, type: 3}
    - {fileID: 21300000, guid: 54c48473cb0a05f4b83b33338e233e30, type: 3}
    - {fileID: 21300000, guid: 4a899218ac1240442973dabb45e77e66, type: 3}
    - {fileID: 21300000, guid: 5525d3482c9bad644bdb889dfd13b149, type: 3}
    - {fileID: 21300000, guid: a230b8d36c14ead40b5415dfa30868ec, type: 3}
    - {fileID: 21300000, guid: 294d1a15d03dcd340845925c7fa77a52, type: 3}
    - {fileID: 21300000, guid: 46b31e6ccf3c4b84396296a802fceeab, type: 3}
    - {fileID: 21300000, guid: 279f03ec9a81de642929dff3dbdea2a0, type: 3}
    - {fileID: 21300000, guid: 1927ab5ea3df4ba4eb7728de5aac7a63, type: 3}
    - {fileID: 21300000, guid: bc9d5a48a665b2e419704224183dd405, type: 3}
    - {fileID: 21300000, guid: 57bf457c42ac7214689b58f6f4f358c5, type: 3}
    - {fileID: 21300000, guid: bb59dd9cd38cae74491bfba706ff17fa, type: 3}
    - {fileID: 21300000, guid: 28ea7d0270a32034fac6b684179bc08a, type: 3}
    - {fileID: 21300000, guid: 3e6c04fa422cb8c4992e722d0ec1d752, type: 3}
    - {fileID: 21300000, guid: 2864d4059df9a62409e9f89fb97d3222, type: 3}
    - {fileID: 21300000, guid: ce58c59fa6bf1dc40980d57cfc7cd532, type: 3}
    - {fileID: 21300000, guid: 06a56580937f43f46b05243eee594932, type: 3}
    - {fileID: 21300000, guid: 57317efeb394917429edb36c179dd8ae, type: 3}
    - {fileID: 21300000, guid: aaabec6c4bafedd4d89a919f7aea6677, type: 3}
    - {fileID: 21300000, guid: e0af44fecd13a8242a704843e48af1d9, type: 3}
    - {fileID: 21300000, guid: 083eba9dc3cd1704290311a198021306, type: 3}
  m_AnimationClipSettings:
    serializedVersion: 2
    m_AdditiveReferencePoseClip: {fileID: 0}
    m_AdditiveReferencePoseTime: 0
    m_StartTime: 0
    m_StopTime: 20
    m_OrientationOffsetY: 0
    m_Level: 0
    m_CycleOffset: 0
    m_HasAdditiveReferencePose: 0
    m_LoopTime: 1
    m_LoopBlend: 0
    m_LoopBlendOrientation: 0
    m_LoopBlendPositionY: 0
    m_LoopBlendPositionXZ: 0
    m_KeepOriginalOrientation: 0
    m_KeepOriginalPositionY: 1
    m_KeepOriginalPositionXZ: 0
    m_HeightFromFeet: 0
    m_Mirror: 0
  m_EditorCurves: []
  m_EulerEditorCurves: []
  m_HasGenericRootTransform: 0
  m_HasMotionFloatCurves: 0
  m_Events: []
